{
  "file_generated_by": "FlutterFire CLI",
  "purpose": "FirebaseAppID & ProjectID for this Firebase app in this directory",
  "GOOGLE_APP_ID": "1:689925516919:ios:b32acaf5492e2c8f212072",
  "FIREBASE_PROJECT_ID": "todoapp-87d61",
  "GCM_SENDER_ID": "689925516919"
}